…
## The following objects are masked from 'package:base':
## 
##     intersect, setdiff, setequal, union

pf.fc_by_age_gender <- pf %>% 
  group_by(age, gender) %>% 
  summarise(mean_friend_count = mean(friend_count),
            median_friend_count = median(friend_count),
            n = n()) 
pf.fc_by_age_gender

## # A tibble: 274 x 5
## # Groups:   age [?]
##      age gender mean_friend_count median_friend_count     n
##    <int> <fct>              <dbl>               <dbl> <int>
##  1    13 female              259.               148     193
##  2    13 male                102.                55     291
##  3    14 female              362.               224     847
##  4    14 male                164.                92.5  1078
##  5    15 female              539.               276    1139
##  6    15 male                201.               106.   1478
##  7    15 <NA>                116                116       1
##  8    16 female              520.               258.   1238
##  9    16 male                240.               136    1848
## 10    17 female              539.               246.   1236
## # ... with 264 more rows

# anwser
pf.fc_by_age_gender <- pf %>% 
  filter(!is.na(gender)) %>%
  group_by(age, gender) %>% 
  summarise(mean_friend_count = mean(friend_count),
            median_friend_count = median(friend_count),
            n = n()) %>% 
  ungroup() %>% 
  arrange(age)
pf.fc_by_age_gender

## # A tibble: 202 x 5
##      age gender mean_friend_count median_friend_count     n
##    <int> <fct>              <dbl>               <dbl> <int>
##  1    13 female              259.               148     193
##  2    13 male                102.                55     291
##  3    14 female              362.               224     847
##  4    14 male                164.                92.5  1078
##  5    15 female              539.               276    1139
##  6    15 male                201.               106.   1478
##  7    16 female              520.               258.   1238
##  8    16 male                240.               136    1848
##  9    17 female              539.               246.   1236
## 10    17 male                236.               125    2045
## # ... with 192 more rows
…
Notes:

Reshaping Data

Notes:

library(tidyr)
pf.fc_by_age_gender.wide <- subset(pf.fc_by_age_gender[c('age', 'gender', 'median_friend_count')], 
                                   !is.na(gender)) %>% 
  spread(gender, median_friend_count) %>% 
  mutate(ratio = male / female)

pf.fc_by_age_gender.wide

## # A tibble: 101 x 4
##      age female  male ratio
##    <int>  <dbl> <dbl> <dbl>
##  1    13   148   55   0.372
##  2    14   224   92.5 0.413
##  3    15   276  106.  0.386
##  4    16   258. 136   0.526
##  5    17   246. 125   0.509
##  6    18   243  122   0.502
##  7    19   229  130   0.568
##  8    20   190  112   0.589
##  9    21   158  108   0.684
## 10    22   124   97   0.782
## # ... with 91 more rows
…
